<?xml version="1.0" encoding="utf-8"?>
<!-- Generator: Adobe Illustrator 16.0.0, SVG Export Plug-In . SVG Version: 6.00 Build 0)  -->
<!DOCTYPE svg PUBLIC "-//W3C//DTD SVG 1.1//EN" "http://www.w3.org/Graphics/SVG/1.1/DTD/svg11.dtd">
<svg version="1.1" id="Layer_1" xmlns="http://www.w3.org/2000/svg" xmlns:xlink="http://www.w3.org/1999/xlink" x="0px" y="0px"
	 width="314px" height="315.938px" viewBox="0 312.063 314 315.938" enable-background="new 0 312.063 314 315.938"
	 xml:space="preserve">
<path opacity="0.3" fill="#292929" enable-background="new    " d="M314,502.4V628c-83.28,0-163.15-33.08-222.03-91.97
	C33.08,477.14,0,397.28,0,314c0-0.64,0-1.27,0.01-1.91h125.6c-0.01,0.64-0.01,1.27-0.01,1.91c0,49.97,19.85,97.89,55.18,133.22
	S264.03,502.4,314,502.4z"/>
</svg>
